\relax 
\providecommand\hyper@newdestlabel[2]{}
\providecommand\HyperFirstAtBeginDocument{\AtBeginDocument}
\HyperFirstAtBeginDocument{\ifx\hyper@anchor\@undefined
\global\let\oldcontentsline\contentsline
\gdef\contentsline#1#2#3#4{\oldcontentsline{#1}{#2}{#3}}
\global\let\oldnewlabel\newlabel
\gdef\newlabel#1#2{\newlabelxx{#1}#2}
\gdef\newlabelxx#1#2#3#4#5#6{\oldnewlabel{#1}{{#2}{#3}}}
\AtEndDocument{\ifx\hyper@anchor\@undefined
\let\contentsline\oldcontentsline
\let\newlabel\oldnewlabel
\fi}
\fi}
\global\let\hyper@last\relax 
\gdef\HyperFirstAtBeginDocument#1{#1}
\providecommand\HyField@AuxAddToFields[1]{}
\providecommand\HyField@AuxAddToCoFields[2]{}
\@writefile{toc}{\contentsline {section}{\numberline {1}Introduction}{3}{section.1}\protected@file@percent }
\@writefile{toc}{\contentsline {subsection}{\numberline {1.1}Broad Question}{3}{subsection.1.1}\protected@file@percent }
\@writefile{toc}{\contentsline {subsection}{\numberline {1.2}Purpose}{3}{subsection.1.2}\protected@file@percent }
\@writefile{toc}{\contentsline {subsection}{\numberline {1.3}Testable Question}{3}{subsection.1.3}\protected@file@percent }
\@writefile{toc}{\contentsline {subsection}{\numberline {1.4}Scope}{3}{subsection.1.4}\protected@file@percent }
\@writefile{toc}{\contentsline {section}{\numberline {2}Background}{4}{section.2}\protected@file@percent }
\@writefile{toc}{\contentsline {subsection}{\numberline {2.1}Earlier Research}{4}{subsection.2.1}\protected@file@percent }
\@writefile{toc}{\contentsline {subsection}{\numberline {2.2}Terms and Definitions}{4}{subsection.2.2}\protected@file@percent }
\@writefile{toc}{\contentsline {subsubsection}{\numberline {2.2.1}Neural Network Terminology and explanation}{4}{subsubsection.2.2.1}\protected@file@percent }
\@writefile{toc}{\contentsline {subsubsection}{\numberline {2.2.2}Programming Terminology}{6}{subsubsection.2.2.2}\protected@file@percent }
\@writefile{toc}{\contentsline {section}{\numberline {3}Method}{6}{section.3}\protected@file@percent }
\@writefile{toc}{\contentsline {subsection}{\numberline {3.1}Data Collection}{6}{subsection.3.1}\protected@file@percent }
\@writefile{toc}{\contentsline {subsubsection}{\numberline {3.1.1}Source}{6}{subsubsection.3.1.1}\protected@file@percent }
\@writefile{toc}{\contentsline {subsubsection}{\numberline {3.1.2}Data Window}{6}{subsubsection.3.1.2}\protected@file@percent }
\@writefile{toc}{\contentsline {subsubsection}{\numberline {3.1.3}Data Cleaning}{6}{subsubsection.3.1.3}\protected@file@percent }
\@writefile{toc}{\contentsline {subsection}{\numberline {3.2}Framework Development}{6}{subsection.3.2}\protected@file@percent }
\@writefile{toc}{\contentsline {subsubsection}{\numberline {3.2.1}Data structures}{6}{subsubsection.3.2.1}\protected@file@percent }
\@writefile{lof}{\contentsline {figure}{\numberline {1}{\ignorespaces ProposedNeuron inheritance visualized}}{8}{figure.1}\protected@file@percent }
\newlabel{fig: UML1}{{1}{8}{ProposedNeuron inheritance visualized}{figure.1}{}}
\@writefile{toc}{\contentsline {subsubsection}{\numberline {3.2.2}Api usability concerns}{8}{subsubsection.3.2.2}\protected@file@percent }
\@writefile{toc}{\contentsline {subsubsection}{\numberline {3.2.3}Activation function usage and its implications}{9}{subsubsection.3.2.3}\protected@file@percent }
\@writefile{lof}{\contentsline {figure}{\numberline {2}{\ignorespaces IActivationFunction inheritance visualized}}{10}{figure.2}\protected@file@percent }
\newlabel{fig: UML2}{{2}{10}{IActivationFunction inheritance visualized}{figure.2}{}}
\@writefile{toc}{\contentsline {subsubsection}{\numberline {3.2.4}Cost function implementation}{10}{subsubsection.3.2.4}\protected@file@percent }
\@writefile{lof}{\contentsline {figure}{\numberline {3}{\ignorespaces ICostFunction inheritance visualized}}{11}{figure.3}\protected@file@percent }
\newlabel{fig: UML3}{{3}{11}{ICostFunction inheritance visualized}{figure.3}{}}
\@writefile{toc}{\contentsline {subsubsection}{\numberline {3.2.5}Epoch execution process}{12}{subsubsection.3.2.5}\protected@file@percent }
\@writefile{lof}{\contentsline {figure}{\numberline {4}{\ignorespaces The epoch execution process visualized}}{12}{figure.4}\protected@file@percent }
\newlabel{fig: UML4}{{4}{12}{The epoch execution process visualized}{figure.4}{}}
\@writefile{toc}{\contentsline {subsection}{\numberline {3.3}Model Structure}{13}{subsection.3.3}\protected@file@percent }
\@writefile{toc}{\contentsline {subsubsection}{\numberline {3.3.1}Activation function selection}{13}{subsubsection.3.3.1}\protected@file@percent }
\@writefile{toc}{\contentsline {subsubsection}{\numberline {3.3.2}Cost function selection}{14}{subsubsection.3.3.2}\protected@file@percent }
\@writefile{toc}{\contentsline {subsubsection}{\numberline {3.3.3}Network size}{15}{subsubsection.3.3.3}\protected@file@percent }
\@writefile{toc}{\contentsline {subsubsection}{\numberline {3.3.4}Weight and bias initialization}{16}{subsubsection.3.3.4}\protected@file@percent }
\@writefile{toc}{\contentsline {section}{\numberline {4}Result}{16}{section.4}\protected@file@percent }
\@writefile{toc}{\contentsline {section}{\numberline {5}Discussion}{16}{section.5}\protected@file@percent }
\@writefile{toc}{\contentsline {section}{\numberline {6}Conclusion}{16}{section.6}\protected@file@percent }
\@writefile{toc}{\contentsline {section}{\numberline {7}References}{16}{section.7}\protected@file@percent }
\@writefile{toc}{\contentsline {section}{\numberline {8}Supplements}{16}{section.8}\protected@file@percent }
\gdef \@abspage@last{16}
